%YAML 1.1
%TAG !u! tag:unity3d.com,2011:
--- !u!74 &7400000
AnimationClip:
  m_ObjectHideFlags: 0
  m_PrefabParentObject: {fileID: 0}
  m_PrefabInternal: {fileID: 0}
  m_Name: jump
  serializedVersion: 6
  m_Legacy: 0
  m_Compressed: 0
  m_UseHighQualityCurve: 1
  m_RotationCurves: []
  m_CompressedRotationCurves: []
  m_EulerCurves: []
  m_PositionCurves: []
  m_ScaleCurves: []
  m_FloatCurves: []
  m_PPtrCurves:
  - curve:
    - time: 0
      value: {fileID: 21300000, guid: 287e27c1f1038074c880495a2a056d34, type: 3}
    - time: 0.1
      value: {fileID: 21300000, guid: 104976e44cfdcc2488aed5f3427214eb, type: 3}
    - time: 0.2
      value: {fileID: 21300000, guid: ef44a0c6f101e5d4cbc6a5aca0584b21, type: 3}
    - time: 0.3
      value: {fileID: 21300000, guid: 270c7486f3e9b3146ad1bece03684b5b, type: 3}
    - time: 0.4
      value: {fileID: 21300000, guid: b3ecd075d5913d34fb3a6d026c4ee2aa, type: 3}
    - time: 0.5
      value: {fileID: 21300000, guid: 8f7e2766ba1244a4c9f9e670df1afb44, type: 3}
    - time: 0.6
      value: {fileID: 21300000, guid: b1648bdacb150d340a27f82ce3158566, type: 3}
    - time: 0.7
      value: {fileID: 21300000, guid: 72356cb3bf8d9cb47b6a6106ed06e57b, type: 3}
    - time: 0.8
      value: {fileID: 21300000, guid: c122a31aee519bb41963e94d26331110, type: 3}
    - time: 0.9
      value: {fileID: 21300000, guid: 3cc60340fcf959440bdc853b0578d7fd, type: 3}
    attribute: m_Sprite
    path: 
    classID: 212
    script: {fileID: 0}
  m_SampleRate: 10
  m_WrapMode: 0
  m_Bounds:
    m_Center: {x: 0, y: 0, z: 0}
    m_Extent: {x: 0, y: 0, z: 0}
  m_ClipBindingConstant:
    genericBindings:
    - serializedVersion: 2
      path: 0
      attribute: 0
      script: {fileID: 0}
      typeID: 212
      customType: 23
      isPPtrCurve: 1
    pptrCurveMapping:
    - {fileID: 21300000, guid: 287e27c1f1038074c880495a2a056d34, type: 3}
    - {fileID: 21300000, guid: 104976e44cfdcc2488aed5f3427214eb, type: 3}
    - {fileID: 21300000, guid: ef44a0c6f101e5d4cbc6a5aca0584b21, type: 3}
    - {fileID: 21300000, guid: 270c7486f3e9b3146ad1bece03684b5b, type: 3}
    - {fileID: 21300000, guid: b3ecd075d5913d34fb3a6d026c4ee2aa, type: 3}
    - {fileID: 21300000, guid: 8f7e2766ba1244a4c9f9e670df1afb44, type: 3}
    - {fileID: 21300000, guid: b1648bdacb150d340a27f82ce3158566, type: 3}
    - {fileID: 21300000, guid: 72356cb3bf8d9cb47b6a6106ed06e57b, type: 3}
    - {fileID: 21300000, guid: c122a31aee519bb41963e94d26331110, type: 3}
    - {fileID: 21300000, guid: 3cc60340fcf959440bdc853b0578d7fd, type: 3}
  m_AnimationClipSettings:
    serializedVersion: 2
    m_AdditiveReferencePoseClip: {fileID: 0}
    m_AdditiveReferencePoseTime: 0
    m_StartTime: 0
    m_StopTime: 1
    m_OrientationOffsetY: 0
    m_Level: 0
    m_CycleOffset: 0
    m_HasAdditiveReferencePose: 0
    m_LoopTime: 1
    m_LoopBlend: 0
    m_LoopBlendOrientation: 0
    m_LoopBlendPositionY: 0
    m_LoopBlendPositionXZ: 0
    m_KeepOriginalOrientation: 0
    m_KeepOriginalPositionY: 1
    m_KeepOriginalPositionXZ: 0
    m_HeightFromFeet: 0
    m_Mirror: 0
  m_EditorCurves: []
  m_EulerEditorCurves: []
  m_HasGenericRootTransform: 0
  m_HasMotionFloatCurves: 0
  m_GenerateMotionCurves: 0
  m_Events: []
